…
tg
#> # A tibble: 86 x 4
#>    level record tag   value           
#>    <dbl> <chr>  <chr> <chr>           
#>  1     0 HD     HEAD  ""              
#>  2     1 HD     SOUR  "tidygedcom"    
#>  3     2 HD     VERS  "0.0.0.9000"    
#>  4     1 HD     DATE  "02 AUG 2020"   
#>  5     1 HD     SUBM  "@U1@"          
#>  6     1 HD     GEDC  ""              
#>  7     2 HD     VERS  "5.5.1"         
#>  8     2 HD     FORM  "Lineage-Linked"
#>  9     1 HD     CHAR  "UTF-8"         
#> 10     0 @U1@   SUBM  ""              
#> # … with 76 more rows
```
…
