Source records • tidyged
…
Linking back to repositories

birth_source %>% 
  add_repo("General Register Office",
           repo_address = address(city = "Southport", state = "Merseyside")) %>%
  activate_sour(find_sour_titl(., "Birth Certificate for Joe Bloggs")) %>% 
  add_sour_repo_citation(repository = find_repo_name(., "General Register Office"))
#> # A tibble: 40 × 4
#>    level record tag   value                                                     
#>    <dbl> <chr>  <chr> <chr>                                                     
#>  1     0 HD     HEAD  ""                                                        
#>  2     1 HD     GEDC  ""                                                        
#>  3     2 HD     VERS  "5.5.5"                                                   
#>  4     2 HD     FORM  "LINEAGE-LINKED"                                          
#>  5     3 HD     VERS  "5.5.5"                                                   
#>  6     1 HD     CHAR  "UTF-8"                                                   
#>  7     1 HD     DEST  "gedcompendium"                                           
#>  8     1 HD     SOUR  "gedcompendium"                                           
#>  9     2 HD     NAME  "The 'gedcompendium' ecosystem of packages for the R lang…
#> 10     2 HD     CORP  "Jamie Lendrum"                                           
#> # … with 30 more rows
…
